INFSCI 2595 Fall 2021 - Final Project
…
ready_v_A <- train_v %>% 
  left_join(train_outputs, by = 'run_id') %>% 
  select(-run_id, -outcome)

predict the continuous output with respect to the v-variables

Linear additive features

set.seed(2021)
cv_folds <- vfold_cv(ready_v_A, v = 5, repeats = 5)

cv_folds

## #  5-fold cross-validation repeated 5 times 
## # A tibble: 25 x 3
##    splits             id      id2  
##    <list>             <chr>   <chr>
##  1 <split [1519/380]> Repeat1 Fold1
##  2 <split [1519/380]> Repeat1 Fold2
##  3 <split [1519/380]> Repeat1 Fold3
##  4 <split [1519/380]> Repeat1 Fold4
##  5 <split [1520/379]> Repeat1 Fold5
##  6 <split [1519/380]> Repeat2 Fold1
##  7 <split [1519/380]> Repeat2 Fold2
##  8 <split [1519/380]> Repeat2 Fold3
##  9 <split [1519/380]> Repeat2 Fold4
## 10 <split [1520/379]> Repeat2 Fold5
## # ... with 15 more rows
…
